…
knitr::kable(key_events, col.names = c("Date", "Event"),
             caption = "Key identified media events for ITS analysis")
```

    Months with media coverage:
    # A tibble: 29 × 3
       date       total_articles articles
       <date>              <dbl>    <int>
     1 2023-08-01         113942       11
     2 2018-09-01          63586       10
     3 2025-11-01          62957        9
     4 2015-10-01          61208        4
     5 2025-05-01          72186        4
     6 2025-08-01          73798        4
     7 2014-08-01          40161        3
     8 2016-10-01          50611        3
     9 2018-08-01         142421        3
    10 2018-06-01         159079        2
    11 2018-07-01         137330        2
    12 2019-08-01         117403        2
    13 2020-01-01         107590        2
    14 2020-11-01          90906        2
    15 2022-09-01          98011        2
    16 2022-11-01          99525        2
    17 2016-06-01          53121        1
    18 2016-09-01          64627        1
    19 2019-01-01         102986        1
    20 2019-06-01         121785        1
    # ℹ 9 more rows
…
